{
    "name": "Rust",
    "slug": "rust",
    "description": "Oxide (legacy) modification for the game Rust",
    "aliases": "",
    "game_url": "https:\/\/store.steampowered.com\/app\/252490\/Rust\/",
    "snapshot_url": "https:\/\/github.com\/OxideMod\/Oxide.Rust\/releases\/download\/2.0.5373\/Oxide.Rust-linux.zip",
    "icon_url": "https:\/\/assets.umod.org\/images\/icons\/game\/5b39a45f30c6f.png",
    "repository": "OxideMod\/Oxide.Rust",
    "server_appid": "258550",
    "client_appid": "252490",
    "buildable": 1,
    "umod_buildable": 1,
    "installation_paths": "RustDedicated_Data\/Managed",
    "target_framework": "v4.6",
    "target_sdk": "net48",
    "public_branch_name": "public",
    "public_branch_description": null,
    "preprocessor_symbol": "RUST",
    "steam_authenticated": 0,
    "files_install": null,
    "files_update": null,
    "skip_install": "*.mp4,Bundles\/*.json",
    "skip_update": null,
    "whitelist": "ConVar,Dest,Facepunch,Network,PVT,Rust,Steamworks",
    "blacklist": "RawWriter,ServerMgr.UpdateNetworkInformation,Facepunch.StreamWorks.Server",
    "update_check_frequency": "5m",
    "download_url": "https:\/\/umod.org\/games\/rust\/download",
    "url": "https:\/\/umod.org\/games\/rust",
    "plugin_count": 1287,
    "extension_count": 0,
    "product_count": 0,
    "latest_release_version": "2.0.5355",
    "latest_release_version_formatted": "v2.0.5355",
    "latest_release_version_checksum": "",
    "latest_release_at": "2022-01-28 18:55:21",
    "latest_release_at_atom": "2022-01-28T18:55:21+00:00",
    "watchers": 2326,
    "watchers_shortened": "2.3K",
    "channels": [
        {
            "channel_id": "527981778732974110",
            "bot_name": "Steam Update",
            "bot_slug": "steam-update"
        },
        {
            "channel_id": "667502468808048640",
            "bot_name": "Resource Update",
            "bot_slug": "resource-update"
        },
        {
            "channel_id": "886712493500686336",
            "bot_name": "Discussion",
            "bot_slug": "discussion"
        }
    ],
    "steam_branches": [
        {
            "name": "public",
            "pwdrequired": 0,
            "timeupdated": "1643913775",
            "buildid": 8137901
        },
        {
            "name": "debug",
            "pwdrequired": 1,
            "timeupdated": "1565175365",
            "buildid": 4082533
        },
        {
            "name": "release",
            "pwdrequired": 0,
            "timeupdated": "1643886200",
            "buildid": 8137901
        },
        {
            "name": "release-debug",
            "pwdrequired": 0,
            "timeupdated": "1643886293",
            "buildid": 8137909
        },
        {
            "name": "staging",
            "pwdrequired": 0,
            "timeupdated": "1643858861",
            "buildid": 8135944
        },
        {
            "name": "staging-debug",
            "pwdrequired": 1,
            "timeupdated": "1643858954",
            "buildid": 8135951
        },
        {
            "name": "test",
            "pwdrequired": 1,
            "timeupdated": "1642182524",
            "buildid": 8022893
        },
        {
            "name": "aux01",
            "pwdrequired": 1,
            "timeupdated": "1643372028",
            "buildid": 8104678
        },
        {
            "name": "aux01-debug",
            "pwdrequired": 1,
            "timeupdated": "1643372123",
            "buildid": 8104689
        },
        {
            "name": "aux02",
            "pwdrequired": 1,
            "timeupdated": "1642017896",
            "buildid": 8010312
        },
        {
            "name": "aux02-debug",
            "pwdrequired": 1,
            "timeupdated": "1642017974",
            "buildid": 8010322
        },
        {
            "name": "aux03",
            "pwdrequired": 1,
            "timeupdated": "1639768190",
            "buildid": 7904033
        },
        {
            "name": "aux03-debug",
            "pwdrequired": 1,
            "timeupdated": "1639768275",
            "buildid": 7904040
        },
        {
            "name": "experimental",
            "pwdrequired": 1,
            "timeupdated": "1622209302",
            "buildid": 6775797
        },
        {
            "name": "experimental-debug",
            "pwdrequired": 1,
            "timeupdated": "1622209454",
            "buildid": 6775809
        },
        {
            "name": "hdrp",
            "pwdrequired": 1,
            "timeupdated": "1600880700",
            "buildid": 5585428
        },
        {
            "name": "hdrp-debug",
            "pwdrequired": 1,
            "timeupdated": "1600881047",
            "buildid": 5585460
        },
        {
            "name": "softcore-update-feb",
            "pwdrequired": 1,
            "timeupdated": "1616491889",
            "buildid": 6424743
        },
        {
            "name": "gestures",
            "pwdrequired": 1,
            "timeupdated": "1617449973",
            "buildid": 6482618
        },
        {
            "name": "workcart-update",
            "pwdrequired": 1,
            "timeupdated": "1617450989",
            "buildid": 6485636
        },
        {
            "name": "backport-update",
            "pwdrequired": 1,
            "timeupdated": "1620805121",
            "buildid": 6684682
        },
        {
            "name": "contacts-update",
            "pwdrequired": 1,
            "timeupdated": "1623158913",
            "buildid": 6831531
        },
        {
            "name": "wounding-update",
            "pwdrequired": 1,
            "timeupdated": "1625838709",
            "buildid": 7005562
        },
        {
            "name": "trailer",
            "pwdrequired": 1,
            "timeupdated": "1627528044",
            "buildid": 7104639
        }
    ]
}